2 Overview of Practices – CIPS Analysis Report - Fall 2024
…
ICC Intraclass Correlation Coefficient

Consistency

F-value

Consistency of reporting within courses - F-value across courses

`summarise()` has grouped output by 'practice_id'. You can override using the
`.groups` argument.
`summarise()` has grouped output by 'practice_id'. You can override using the
`.groups` argument.

# A tibble: 56 × 5
# Groups:   practice_id [56]
   practice_id practice_wording    instr_occurance_perc…¹ instr_prioritize_per…²
   <chr>       <chr>                                <dbl>                  <dbl>
 1 A1.1        State that all stu…                  0.957                  0.435
 2 A1.2        Describe how stude…                  0.652                  0.391
 3 A1.3        Explain that stude…                  0.783                  0.565
 4 A1.4        Celebrate how much…                  0.522                  0.478
 5 A10.1       Refer to students …                  0.478                  0.217
 6 A10.2       Encourage students…                  0.348                  0.217
 7 A10.3       Help students make…                  0.913                  0.435
 8 A10.4       Clarify how the sk…                  0.739                  0.478
 9 A11.1       Incorporate real-w…                  0.957                  0.609
10 A11.2       Incorporate studen…                  0.739                  0.391
# ℹ 46 more rows
# ℹ abbreviated names: ¹​instr_occurance_percent, ²​instr_prioritize_percent
# ℹ 1 more variable: instr_response_char <dbl>
…
::: {#issue-s2-YN .issue}
**Issue: Session 2 YN column**

There is something screwy with the YN practices column
:::

2.2 Limited by first-gen and underrepresented

`summarise()` has grouped output by 'practice_id'. You can override using the
`.groups` argument.
`summarise()` has grouped output by 'practice_id'. You can override using the
`.groups` argument.

# A tibble: 56 × 5
# Groups:   practice_id [56]
   practice_id practice_wording    instr_occurance_perc…¹ instr_prioritize_per…²
   <chr>       <chr>                                <dbl>                  <dbl>
 1 A1.1        State that all stu…                  0.957                  0.435
 2 A1.2        Describe how stude…                  0.652                  0.391
 3 A1.3        Explain that stude…                  0.783                  0.565
 4 A1.4        Celebrate how much…                  0.522                  0.478
 5 A10.1       Refer to students …                  0.478                  0.217
 6 A10.2       Encourage students…                  0.348                  0.217
 7 A10.3       Help students make…                  0.913                  0.435
 8 A10.4       Clarify how the sk…                  0.739                  0.478
 9 A11.1       Incorporate real-w…                  0.957                  0.609
10 A11.2       Incorporate studen…                  0.739                  0.391
# ℹ 46 more rows
# ℹ abbreviated names: ¹​instr_occurance_percent, ²​instr_prioritize_percent
# ℹ 1 more variable: instr_response_char <dbl>
…
